[api-updater (non-obsolete-error-filter)] 4/1/2022 3:27:38 PM : Starting D:/UnityInstalls/2020.3.21f1/Editor/Data/Tools/ScriptUpdater/APIUpdater.NonObsoleteApiUpdaterDetector.exe
[api-updater (non-obsolete-error-filter)] 
----------------------------------
jit/startup time      : 797.1165ms
moved types parse time: 53ms
candidates parse time : 1ms
C# parse time         : 556ms
candidates check time : 31ms
console write time    : 0ms

