%YAML 1.1
%TAG !u! tag:unity3d.com,2011:
--- !u!1001 &8043629230805201419
PrefabInstance:
  m_ObjectHideFlags: 0
  serializedVersion: 2
  m_Modification:
    m_TransformParent: {fileID: 0}
    m_Modifications:
    - target: {fileID: 2246307834741018906, guid: 21a63aef63f67a246b35bb6139d3243d, type: 3}
      propertyPath: m_text
      value: 3
      objectReference: {fileID: 0}
    - target: {fileID: 2246307836487628769, guid: 21a63aef63f67a246b35bb6139d3243d, type: 3}
      propertyPath: m_OnClick.m_PersistentCalls.m_Calls.Array.size
      value: 2
      objectReference: {fileID: 0}
    - target: {fileID: 2246307836487628769, guid: 21a63aef63f67a246b35bb6139d3243d, type: 3}
      propertyPath: m_OnClick.m_PersistentCalls.m_Calls.Array.data[1].m_Mode
      value: 1
      objectReference: {fileID: 0}
    - target: {fileID: 2246307836487628769, guid: 21a63aef63f67a246b35bb6139d3243d, type: 3}
      propertyPath: m_OnClick.m_PersistentCalls.m_Calls.Array.data[0].m_Target
      value: 
      objectReference: {fileID: 0}
    - target: {fileID: 2246307836487628769, guid: 21a63aef63f67a246b35bb6139d3243d, type: 3}
      propertyPath: m_OnClick.m_PersistentCalls.m_Calls.Array.data[1].m_CallState
      value: 2
      objectReference: {fileID: 0}
    - target: {fileID: 2246307836487628769, guid: 21a63aef63f67a246b35bb6139d3243d, type: 3}
      propertyPath: m_OnClick.m_PersistentCalls.m_Calls.Array.data[1].m_MethodName
      value: ButtonDebug
      objectReference: {fileID: 0}
    - target: {fileID: 2246307836487628769, guid: 21a63aef63f67a246b35bb6139d3243d, type: 3}
      propertyPath: m_OnClick.m_PersistentCalls.m_Calls.Array.data[1].m_TargetAssemblyTypeName
      value: ButtonHandle, Assembly-CSharp
      objectReference: {fileID: 0}
    - target: {fileID: 2246307836487628769, guid: 21a63aef63f67a246b35bb6139d3243d, type: 3}
      propertyPath: m_OnClick.m_PersistentCalls.m_Calls.Array.data[1].m_Arguments.m_ObjectArgumentAssemblyTypeName
      value: UnityEngine.Object, UnityEngine
      objectReference: {fileID: 0}
    - target: {fileID: 2246307836487628774, guid: 21a63aef63f67a246b35bb6139d3243d, type: 3}
      propertyPath: m_Pivot.x
      value: 0.5
      objectReference: {fileID: 0}
    - target: {fileID: 2246307836487628774, guid: 21a63aef63f67a246b35bb6139d3243d, type: 3}
      propertyPath: m_Pivot.y
      value: 0.5
      objectReference: {fileID: 0}
    - target: {fileID: 2246307836487628774, guid: 21a63aef63f67a246b35bb6139d3243d, type: 3}
      propertyPath: m_RootOrder
      value: 0
      objectReference: {fileID: 0}
    - target: {fileID: 2246307836487628774, guid: 21a63aef63f67a246b35bb6139d3243d, type: 3}
      propertyPath: m_AnchorMax.x
      value: 0
      objectReference: {fileID: 0}
    - target: {fileID: 2246307836487628774, guid: 21a63aef63f67a246b35bb6139d3243d, type: 3}
      propertyPath: m_AnchorMax.y
      value: 0
      objectReference: {fileID: 0}
    - target: {fileID: 2246307836487628774, guid: 21a63aef63f67a246b35bb6139d3243d, type: 3}
      propertyPath: m_AnchorMin.x
      value: 0
      objectReference: {fileID: 0}
    - target: {fileID: 2246307836487628774, guid: 21a63aef63f67a246b35bb6139d3243d, type: 3}
      propertyPath: m_AnchorMin.y
      value: 0
      objectReference: {fileID: 0}
    - target: {fileID: 2246307836487628774, guid: 21a63aef63f67a246b35bb6139d3243d, type: 3}
      propertyPath: m_SizeDelta.x
      value: 0
      objectReference: {fileID: 0}
    - target: {fileID: 2246307836487628774, guid: 21a63aef63f67a246b35bb6139d3243d, type: 3}
      propertyPath: m_SizeDelta.y
      value: 0
      objectReference: {fileID: 0}
    - target: {fileID: 2246307836487628774, guid: 21a63aef63f67a246b35bb6139d3243d, type: 3}
      propertyPath: m_LocalPosition.x
      value: 0
      objectReference: {fileID: 0}
    - target: {fileID: 2246307836487628774, guid: 21a63aef63f67a246b35bb6139d3243d, type: 3}
      propertyPath: m_LocalPosition.y
      value: 0
      objectReference: {fileID: 0}
    - target: {fileID: 2246307836487628774, guid: 21a63aef63f67a246b35bb6139d3243d, type: 3}
      propertyPath: m_LocalPosition.z
      value: 0
      objectReference: {fileID: 0}
    - target: {fileID: 2246307836487628774, guid: 21a63aef63f67a246b35bb6139d3243d, type: 3}
      propertyPath: m_LocalRotation.w
      value: 1
      objectReference: {fileID: 0}
    - target: {fileID: 2246307836487628774, guid: 21a63aef63f67a246b35bb6139d3243d, type: 3}
      propertyPath: m_LocalRotation.x
      value: -0
      objectReference: {fileID: 0}
    - target: {fileID: 2246307836487628774, guid: 21a63aef63f67a246b35bb6139d3243d, type: 3}
      propertyPath: m_LocalRotation.y
      value: -0
      objectReference: {fileID: 0}
    - target: {fileID: 2246307836487628774, guid: 21a63aef63f67a246b35bb6139d3243d, type: 3}
      propertyPath: m_LocalRotation.z
      value: -0
      objectReference: {fileID: 0}
    - target: {fileID: 2246307836487628774, guid: 21a63aef63f67a246b35bb6139d3243d, type: 3}
      propertyPath: m_AnchoredPosition.x
      value: 0
      objectReference: {fileID: 0}
    - target: {fileID: 2246307836487628774, guid: 21a63aef63f67a246b35bb6139d3243d, type: 3}
      propertyPath: m_AnchoredPosition.y
      value: 0
      objectReference: {fileID: 0}
    - target: {fileID: 2246307836487628774, guid: 21a63aef63f67a246b35bb6139d3243d, type: 3}
      propertyPath: m_LocalEulerAnglesHint.x
      value: 0
      objectReference: {fileID: 0}
    - target: {fileID: 2246307836487628774, guid: 21a63aef63f67a246b35bb6139d3243d, type: 3}
      propertyPath: m_LocalEulerAnglesHint.y
      value: 0
      objectReference: {fileID: 0}
    - target: {fileID: 2246307836487628774, guid: 21a63aef63f67a246b35bb6139d3243d, type: 3}
      propertyPath: m_LocalEulerAnglesHint.z
      value: 0
      objectReference: {fileID: 0}
    - target: {fileID: 2246307836487628775, guid: 21a63aef63f67a246b35bb6139d3243d, type: 3}
      propertyPath: m_Name
      value: Btn_Level (2)
      objectReference: {fileID: 0}
    m_RemovedComponents: []
  m_SourcePrefab: {fileID: 100100000, guid: 21a63aef63f67a246b35bb6139d3243d, type: 3}
